<?xml version="1.0" encoding="UTF-8" standalone="no"?>
<svg
   xmlns:dc="http://purl.org/dc/elements/1.1/"
   xmlns:cc="http://creativecommons.org/ns#"
   xmlns:rdf="http://www.w3.org/1999/02/22-rdf-syntax-ns#"
   xmlns:svg="http://www.w3.org/2000/svg"
   xmlns="http://www.w3.org/2000/svg"
   width="45.006481mm"
   height="7.0273328mm"
   viewBox="0 0 45.006481 7.0273328"
   version="1.1"
   id="svg2243">
  <defs
     id="defs2237" />
  <metadata
     id="metadata2240">
    <rdf:RDF>
      <cc:Work
         rdf:about="">
        <dc:format>image/svg+xml</dc:format>
        <dc:type
           rdf:resource="http://purl.org/dc/dcmitype/StillImage" />
        <dc:title></dc:title>
      </cc:Work>
    </rdf:RDF>
  </metadata>
  <g
     id="layer1"
     transform="translate(17.211575,54.162477)">
    <g
       aria-label="tracktor.it"
       id="text1375"
       style="font-style:normal;font-variant:normal;font-weight:bold;font-stretch:normal;font-size:9.525px;line-height:120%;font-family:'Open Sans';-inkscape-font-specification:'Open Sans';text-align:start;letter-spacing:0px;word-spacing:0px;writing-mode:lr-tb;text-anchor:start;display:inline;fill:none;fill-opacity:1;stroke:#000000;stroke-width:0.264583px;stroke-linecap:butt;stroke-linejoin:miter;stroke-opacity:1">
      <path
         d="m -14.259884,-47.267436 q -0.352425,0 -0.59055,-0.02858 -0.238125,-0.02857 -0.47625,-0.1143 -0.2667,-0.08572 -0.43815,-0.238125 -0.161925,-0.1524 -0.2667,-0.4191 -0.1143,-0.276225 -0.1143,-0.638175 v -2.409825 h -0.93345 v -0.85725 h 0.93345 v -1.3335 h 1.39065 v 1.3335 h 1.266825 v 0.85725 h -1.266825 v 2.1717 q 0,0.333375 0.05715,0.504825 0.05715,0.161925 0.219075,0.238125 0.161925,0.06667 0.4953,0.06667 0.13335,0 0.4953,-0.04762 v 0.866775 q -0.447675,0.04763 -0.771525,0.04763 z"
         style="font-style:normal;font-variant:normal;font-weight:bold;font-stretch:normal;font-size:9.525px;font-family:play;-inkscape-font-specification:'play Bold';fill:#1d4b7e;fill-opacity:1;stroke:none;stroke-width:0.264583px"
         id="path2814" />
      <path
         d="m -12.695403,-51.972786 h 1.323975 v 0.809625 q 0,-0.219075 0.180975,-0.428625 0.180975,-0.20955 0.4572,-0.3429 0.28575,-0.13335 0.561975,-0.13335 h 0.4953002 v 1.152525 h -0.4762502 q -0.59055,0 -0.8763,0.180975 -0.276225,0.180975 -0.276225,0.600075 v 2.771775 h -1.39065 z"
         style="font-style:normal;font-variant:normal;font-weight:bold;font-stretch:normal;font-size:9.525px;font-family:play;-inkscape-font-specification:'play Bold';fill:#1d4b7e;fill-opacity:1;stroke:none;stroke-width:0.264583px"
         id="path2816" />
      <path
         d="m -7.6139642,-47.267436 q -0.6477,0 -0.97155,-0.1143 -0.3143249,-0.123825 -0.4476749,-0.428625 -0.123825,-0.314325 -0.123825,-0.93345 0,-0.55245 0.13335,-0.866775 0.142875,-0.314325 0.4476749,-0.447675 0.314325,-0.142875 0.85725,-0.142875 h 1.5621 v -0.314325 q 0,-0.295275 -0.085725,-0.43815 -0.0762,-0.142875 -0.295275,-0.200025 -0.20955,-0.05715 -0.638175,-0.05715 -0.59055,0 -1.6192499,0.1143 v -0.8763 q 0.7524749,-0.09525 1.7621249,-0.09525 0.885825,0 1.3620749,0.13335 0.485775,0.13335 0.695325,0.4572 0.20955,0.32385 0.20955,0.942975 v 3.171825 h -1.3620749 v -0.4191 q -0.161925,0.276225 -0.43815,0.390525 -0.276225,0.123825 -1.04775,0.123825 z m 0.542925,-0.866775 q 0.4191,0 0.600075,-0.02857 0.13335,-0.01905 0.180975,-0.05715 0.05715,-0.0381 0.09525,-0.123825 0.0381,-0.06667 0.0381,-0.200025 v -0.89535 h -0.9525 q -0.32385,0 -0.4572,0.04762 -0.13335,0.0381 -0.180975,0.17145 -0.047625,0.123825 -0.047625,0.447675 0,0.314325 0.047625,0.43815 0.047625,0.123825 0.180975,0.161925 0.142875,0.0381 0.4953,0.0381 z"
         style="font-style:normal;font-variant:normal;font-weight:bold;font-stretch:normal;font-size:9.525px;font-family:play;-inkscape-font-specification:'play Bold';fill:#1d4b7e;fill-opacity:1;stroke:none;stroke-width:0.264583px"
         id="path2818" />
      <path
         d="m -1.294573,-47.267436 q -0.36195,0 -0.5715,-0.01905 -0.20955,-0.0095 -0.51435,-0.04763 -0.3048,-0.0381 -0.504825,-0.13335 -0.1904999,-0.09525 -0.4000499,-0.28575 -0.390525,-0.32385 -0.390525,-1.1049 v -1.533525 q 0,-0.62865 0.28575,-1.04775 0.104775,-0.1524 0.3048,-0.276225 0.2095499,-0.13335 0.4190999,-0.20955 0.17145,-0.05715 0.4572,-0.09525 0.28575,-0.0381 0.504825,-0.04762 h 0.504825 q 0.53339995,0 1.40017492,0.17145 v 0.9144 q -0.98107496,-0.2286 -1.50494992,-0.2286 -0.962025,0 -0.962025,0.6477 v 1.69545 q 0,0.733425 1.057275,0.733425 0.51434996,0 1.47637492,-0.20955 v 0.9144 q -0.86677497,0.161925 -1.56209992,0.161925 z"
         style="font-style:normal;font-variant:normal;font-weight:bold;font-stretch:normal;font-size:9.525px;font-family:play;-inkscape-font-specification:'play Bold';fill:#1d4b7e;fill-opacity:1;stroke:none;stroke-width:0.264583px"
         id="path2820" />
      <path
         d="m 1.052595,-54.030186 h 1.39065 v 6.6675 h -1.39065 z m 1.4478,4.0767 1.5144749,-2.0193 h 1.590675 l -1.6002,2.009775 1.73355,2.600325 h -1.571625 z"
         style="font-style:normal;font-variant:normal;font-weight:bold;font-stretch:normal;font-size:9.525px;font-family:play;-inkscape-font-specification:'play Bold';fill:#1d4b7e;fill-opacity:1;stroke:none;stroke-width:0.264583px"
         id="path2822" />
      <path
         d="m 8.4922141,-47.267436 q -0.352425,0 -0.59055,-0.02858 -0.2381249,-0.02857 -0.4762499,-0.1143 -0.2667,-0.08572 -0.43815,-0.238125 -0.161925,-0.1524 -0.2667,-0.4191 -0.1143,-0.276225 -0.1143,-0.638175 v -2.409825 h -0.93345 v -0.85725 h 0.93345 v -1.3335 h 1.3906499 v 1.3335 h 1.266825 v 0.85725 h -1.266825 v 2.1717 q 0,0.333375 0.05715,0.504825 0.05715,0.161925 0.219075,0.238125 0.161925,0.06667 0.4953,0.06667 0.13335,0 0.4953,-0.04762 v 0.866775 q -0.447675,0.04763 -0.771525,0.04763 z"
         style="font-style:normal;font-variant:normal;font-weight:bold;font-stretch:normal;font-size:9.525px;font-family:play;-inkscape-font-specification:'play Bold';fill:#1d4b7e;fill-opacity:1;stroke:none;stroke-width:0.264583px"
         id="path2824" />
      <path
         d="m 12.266496,-47.267436 q -0.428625,0 -0.70485,-0.02858 -0.276225,-0.02857 -0.59055,-0.1143 -0.3429,-0.09525 -0.55245,-0.2667 -0.20955,-0.180975 -0.352425,-0.504825 -0.1428751,-0.314325 -0.1428751,-0.762 v -1.362075 q 0,-0.4572 0.1428751,-0.8001 0.142875,-0.3429 0.371475,-0.5334 0.200025,-0.161925 0.523875,-0.2667 0.333375,-0.1143 0.6477,-0.142875 0.36195,-0.01905 0.657225,-0.01905 0.43815,0 0.695325,0.02857 0.2667,0.01905 0.581025,0.1143 0.3429,0.104775 0.55245,0.28575 0.219075,0.180975 0.371475,0.51435 0.142875,0.3429 0.142875,0.81915 v 1.362075 q 0,0.428625 -0.142875,0.752475 -0.13335,0.32385 -0.352425,0.504825 -0.1905,0.161925 -0.523875,0.2667 -0.32385,0.09525 -0.638175,0.123825 -0.28575,0.02858 -0.6858,0.02858 z m 0,-0.866775 q 0.390525,0 0.59055,-0.05715 0.200025,-0.06667 0.276225,-0.200025 0.08573,-0.13335 0.08573,-0.390525 v -1.743075 q 0,-0.381 -0.200025,-0.5334 -0.200025,-0.1524 -0.752475,-0.1524 -0.55245,0 -0.752475,0.1524 -0.200025,0.1524 -0.200025,0.5334 v 1.743075 q 0,0.257175 0.0762,0.390525 0.08573,0.13335 0.28575,0.200025 0.200025,0.05715 0.59055,0.05715 z"
         style="font-style:normal;font-variant:normal;font-weight:bold;font-stretch:normal;font-size:9.525px;font-family:play;-inkscape-font-specification:'play Bold';fill:#1d4b7e;fill-opacity:1;stroke:none;stroke-width:0.264583px"
         id="path2826" />
      <path
         d="m 15.693561,-51.972786 h 1.323975 v 0.809625 q 0,-0.219075 0.180975,-0.428625 0.180975,-0.20955 0.4572,-0.3429 0.28575,-0.13335 0.561975,-0.13335 h 0.4953 v 1.152525 h -0.47625 q -0.59055,0 -0.8763,0.180975 -0.276225,0.180975 -0.276225,0.600075 v 2.771775 h -1.39065 z"
         style="font-style:normal;font-variant:normal;font-weight:bold;font-stretch:normal;font-size:9.525px;font-family:play;-inkscape-font-specification:'play Bold';fill:#1d4b7e;fill-opacity:1;stroke:none;stroke-width:0.264583px"
         id="path2828" />
      <path
         d="m 19.336724,-48.677136 h 1.4859 v 1.31445 h -1.4859 z"
         style="font-style:normal;font-variant:normal;font-weight:bold;font-stretch:normal;font-size:9.525px;font-family:play;-inkscape-font-specification:'play Bold';fill:#1d4b7e;fill-opacity:1;stroke:none;stroke-width:0.264583px"
         id="path2830" />
      <path
         d="m 21.945235,-53.639661 h 1.39065 v 1.12395 h -1.39065 z m 0,1.666875 h 1.39065 v 4.6101 h -1.39065 z"
         style="font-style:normal;font-variant:normal;font-weight:bold;font-stretch:normal;font-size:9.525px;font-family:play;-inkscape-font-specification:'play Bold';fill:#1d4b7e;fill-opacity:1;stroke:none;stroke-width:0.264583px"
         id="path2832" />
      <path
         d="m 26.89109,-47.267436 q -0.352425,0 -0.59055,-0.02858 -0.238125,-0.02857 -0.47625,-0.1143 -0.2667,-0.08572 -0.43815,-0.238125 -0.161925,-0.1524 -0.2667,-0.4191 -0.1143,-0.276225 -0.1143,-0.638175 v -2.409825 h -0.93345 v -0.85725 h 0.93345 v -1.3335 h 1.39065 v 1.3335 h 1.266825 v 0.85725 H 26.39579 v 2.1717 q 0,0.333375 0.05715,0.504825 0.05715,0.161925 0.219075,0.238125 0.161925,0.06667 0.4953,0.06667 0.13335,0 0.4953,-0.04762 v 0.866775 q -0.447675,0.04763 -0.771525,0.04763 z"
         style="font-style:normal;font-variant:normal;font-weight:bold;font-stretch:normal;font-size:9.525px;font-family:play;-inkscape-font-specification:'play Bold';fill:#1d4b7e;fill-opacity:1;stroke:none;stroke-width:0.264583px"
         id="path2834" />
    </g>
  </g>
</svg>
