<svg xmlns="http://www.w3.org/2000/svg" xmlns:xlink="http://www.w3.org/1999/xlink" xml:space="preserve" version="1.1" style="shape-rendering:geometricPrecision;text-rendering:geometricPrecision;image-rendering:optimizeQuality;" viewBox="0 0 847 1058.75" x="0px" y="0px" fill-rule="evenodd" clip-rule="evenodd"><defs><style type="text/css">
   
    .fil0 {fill:black}
   
  </style></defs><g><path class="fil0" d="M95 165c23,-23 47,-47 70,-70 86,86 172,172 258,258 86,-86 173,-172 259,-258 23,23 46,47 70,70 -86,86 -172,172 -259,258 87,86 173,173 259,259 -24,23 -47,46 -70,70 -86,-86 -173,-172 -259,-259 -86,87 -172,173 -258,259 -23,-24 -47,-47 -70,-70 86,-86 172,-173 258,-259 -86,-86 -172,-172 -258,-258z"/></g><text x="0" y="862" fill="#000000" font-size="5px" font-weight="bold" font-family="'Helvetica Neue', Helvetica, Arial-Unicode, Arial, Sans-serif">Created by Bismillah</text><text x="0" y="867" fill="#000000" font-size="5px" font-weight="bold" font-family="'Helvetica Neue', Helvetica, Arial-Unicode, Arial, Sans-serif">from the Noun Project</text></svg>